7 Tutorial: Significance testing with tidycomm | Continuing education: R
…
WoJ %>% correlate(ethics_1, autonomy_selection, work_experience, partial = TRUE)

## # A tibble: 3 × 6
##   x               y                  z                        r    df          p
## * <chr>           <chr>              <chr>                <dbl> <dbl>      <dbl>
## 1 ethics_1        autonomy_selection work_experience    -0.0619  1181    3.32e-2
## 2 ethics_1        work_experience    autonomy_selection -0.0924  1181    1.46e-3
## 3 work_experience autonomy_selection ethics_1            0.154   1181    1.03e-7

Get the correlation for all suitable variables in your data set:

WoJ %>% correlate()

## # A tibble: 55 × 5
##    x                  y                        r    df         p
##  * <chr>              <chr>                <dbl> <int>     <dbl>
##  1 autonomy_selection autonomy_emphasis  0.644    1192 4.83e-141
##  2 autonomy_selection ethics_1          -0.0766   1195 7.98e-  3
##  3 autonomy_selection ethics_2          -0.0274   1195 3.43e-  1
##  4 autonomy_selection ethics_3          -0.0257   1195 3.73e-  1
##  5 autonomy_selection ethics_4          -0.0781   1195 6.89e-  3
##  6 autonomy_selection work_experience    0.161    1182 2.71e-  8
##  7 autonomy_selection trust_parliament  -0.00840  1195 7.72e-  1
##  8 autonomy_selection trust_government   0.0414   1195 1.53e-  1
##  9 autonomy_selection trust_parties      0.0269   1195 3.52e-  1
## 10 autonomy_selection trust_politicians  0.0109   1195 7.07e-  1
## # ℹ 45 more rows
…
