5 Tutorial: Advanced data management | Continuing education: R
…
where()

Let’s first import the full Worlds of Journalism dataset from the
tidycomm package:

data <- tidycomm::WoJ

5.4.1 Selecting the last column

Use last_col() when you want to select the last column of a data frame
regardless of its name.

data %>% select(last_col())

## # A tibble: 1,200 × 1
##    trust_politicians
##                <dbl>
##  1                 3
##  2                 3
##  3                 3
##  4                 3
##  5                 2
##  6                 2
##  7                 2
##  8                 3
##  9                 1
## 10                 3
## # ℹ 1,190 more rows

You can also select all columns except the last one:

data %>% select(!last_col())

## # A tibble: 1,200 × 14
##    country   reach employment temp_contract autonomy_selection autonomy_emphasis
##    <fct>     <fct> <chr>      <fct>                      <dbl>             <dbl>
##  1 Germany   Nati… Full-time  Permanent                      5                 4
##  2 Germany   Nati… Full-time  Permanent                      3                 4
##  3 Switzerl… Regi… Full-time  Permanent                      4                 4
##  4 Switzerl… Local Part-time  Permanent                      4                 5
##  5 Austria   Nati… Part-time  Permanent                      4                 4
##  6 Switzerl… Local Freelancer <NA>                           4                 4
##  7 Germany   Local Full-time  Permanent                      4                 4
##  8 Denmark   Nati… Full-time  Permanent                      3                 3
##  9 Switzerl… Local Full-time  Permanent                      5                 5
## 10 Denmark   Nati… Full-time  Permanent                      2                 4
## # ℹ 1,190 more rows
## # ℹ 8 more variables: ethics_1 <dbl>, ethics_2 <dbl>, ethics_3 <dbl>,
## #   ethics_4 <dbl>, work_experience <dbl>, trust_parliament <dbl>,
## #   trust_government <dbl>, trust_parties <dbl>

5.4.2 Selecting columns that start with, end with or contain a specific string

starts_with() selects columns that start with a specific prefix:

data %>% select(starts_with("ethics"))

## # A tibble: 1,200 × 4
##    ethics_1 ethics_2 ethics_3 ethics_4
##       <dbl>    <dbl>    <dbl>    <dbl>
##  1        2        3        2        1
##  2        1        2        2        1
##  3        2        4        2        1
##  4        1        3        1        2
##  5        2        3        2        1
##  6        2        4        4        3
##  7        1        3        2        2
##  8        2        4        4        4
##  9        1        2        1        3
## 10        1        4        4        4
## # ℹ 1,190 more rows

ends_with() selects columns that end with onre or more specific
suffixes:

data %>% select(ends_with(c("_1", "_2"))) # ends with _1 OR _2

## # A tibble: 1,200 × 2
##    ethics_1 ethics_2
##       <dbl>    <dbl>
##  1        2        3
##  2        1        2
##  3        2        4
##  4        1        3
##  5        2        3
##  6        2        4
##  7        1        3
##  8        2        4
##  9        1        2
## 10        1        4
## # ℹ 1,190 more rows

contains() selects columns that contain a specific substring:

data %>% select(contains("_"))

## # A tibble: 1,200 × 12
##    temp_contract autonomy_selection autonomy_emphasis ethics_1 ethics_2 ethics_3
##    <fct>                      <dbl>             <dbl>    <dbl>    <dbl>    <dbl>
##  1 Permanent                      5                 4        2        3        2
##  2 Permanent                      3                 4        1        2        2
##  3 Permanent                      4                 4        2        4        2
##  4 Permanent                      4                 5        1        3        1
##  5 Permanent                      4                 4        2        3        2
##  6 <NA>                           4                 4        2        4        4
##  7 Permanent                      4                 4        1        3        2
##  8 Permanent                      3                 3        2        4        4
##  9 Permanent                      5                 5        1        2        1
## 10 Permanent                      2                 4        1        4        4
## # ℹ 1,190 more rows
## # ℹ 6 more variables: ethics_4 <dbl>, work_experience <dbl>,
## #   trust_parliament <dbl>, trust_government <dbl>, trust_parties <dbl>,
## #   trust_politicians <dbl>

matches() selects columns based on a regular expression pattern:

data %>% select(matches("^ethics")) # ^ stands for "begins with" in regex notation

## # A tibble: 1,200 × 4
##    ethics_1 ethics_2 ethics_3 ethics_4
##       <dbl>    <dbl>    <dbl>    <dbl>
##  1        2        3        2        1
##  2        1        2        2        1
##  3        2        4        2        1
##  4        1        3        1        2
##  5        2        3        2        1
##  6        2        4        4        3
##  7        1        3        2        2
##  8        2        4        4        4
##  9        1        2        1        3
## 10        1        4        4        4
## # ℹ 1,190 more rows

data %>% select(matches("\\d")) # \\d stands for "contains a digit/number"

## # A tibble: 1,200 × 4
##    ethics_1 ethics_2 ethics_3 ethics_4
##       <dbl>    <dbl>    <dbl>    <dbl>
##  1        2        3        2        1
##  2        1        2        2        1
##  3        2        4        2        1
##  4        1        3        1        2
##  5        2        3        2        1
##  6        2        4        4        3
##  7        1        3        2        2
##  8        2        4        4        4
##  9        1        2        1        3
## 10        1        4        4        4
## # ℹ 1,190 more rows
…
data %>% select(starts_with("Ethics", ignore.case = FALSE)) # but there is not capitalized Ethics in the data

## # A tibble: 1,200 × 0

5.4.3 Selecting columns based on a numeric range

You can selects columns based on a numerical range with num_range():

data %>% select(num_range("ethics_", 1:2)) # selects ethics_1 and ethics2, but not ethics_3, etc.

## # A tibble: 1,200 × 2
##    ethics_1 ethics_2
##       <dbl>    <dbl>
##  1        2        3
##  2        1        2
##  3        2        4
##  4        1        3
##  5        2        3
##  6        2        4
##  7        1        3
##  8        2        4
##  9        1        2
## 10        1        4
## # ℹ 1,190 more rows

5.4.4 Selecting columns based on their type

You can selects columns based on their type with where(), e.g., all
character columns:

data %>% select(where(is.character))

## # A tibble: 1,200 × 1
##    employment
##    <chr>     
##  1 Full-time 
##  2 Full-time 
##  3 Full-time 
##  4 Part-time 
##  5 Part-time 
##  6 Freelancer
##  7 Full-time 
##  8 Full-time 
##  9 Full-time 
## 10 Full-time 
## # ℹ 1,190 more rows

Or you could select all columns that contain numbers:

data %>% select(where(is.numeric))

## # A tibble: 1,200 × 11
##    autonomy_selection autonomy_emphasis ethics_1 ethics_2 ethics_3 ethics_4
##                 <dbl>             <dbl>    <dbl>    <dbl>    <dbl>    <dbl>
##  1                  5                 4        2        3        2        1
##  2                  3                 4        1        2        2        1
##  3                  4                 4        2        4        2        1
##  4                  4                 5        1        3        1        2
##  5                  4                 4        2        3        2        1
##  6                  4                 4        2        4        4        3
##  7                  4                 4        1        3        2        2
##  8                  3                 3        2        4        4        4
##  9                  5                 5        1        2        1        3
## 10                  2                 4        1        4        4        4
## # ℹ 1,190 more rows
## # ℹ 5 more variables: work_experience <dbl>, trust_parliament <dbl>,
## #   trust_government <dbl>, trust_parties <dbl>, trust_politicians <dbl>

You could also use: 1) is.integer (whole numbers, e.g., 7) 2) is.double
(decimal numbers, e.g., 7.25) 3) is.logical (e.g., TRUE/FALSE) 4)
is.factor (e.g., “great”, “greater”, “the greatest”)

5.4.5 Combine selectors

You can combine selectors, of course. Let’s select all character columns
and columns that start with “autonomy”.

data %>% select(where(is.character) | starts_with("autonomy"))

## # A tibble: 1,200 × 3
##    employment autonomy_selection autonomy_emphasis
##    <chr>                   <dbl>             <dbl>
##  1 Full-time                   5                 4
##  2 Full-time                   3                 4
##  3 Full-time                   4                 4
##  4 Part-time                   4                 5
##  5 Part-time                   4                 4
##  6 Freelancer                  4                 4
##  7 Full-time                   4                 4
##  8 Full-time                   3                 3
##  9 Full-time                   5                 5
## 10 Full-time                   2                 4
## # ℹ 1,190 more rows

5.4.6 Reorder your columns with everything()

Finally, you can select all columns with everything(). This allows
you to reorder your columns quickly:

data %>% select(temp_contract, country, everything())

## # A tibble: 1,200 × 15
##    temp_contract country   reach employment autonomy_selection autonomy_emphasis
##    <fct>         <fct>     <fct> <chr>                   <dbl>             <dbl>
##  1 Permanent     Germany   Nati… Full-time                   5                 4
##  2 Permanent     Germany   Nati… Full-time                   3                 4
##  3 Permanent     Switzerl… Regi… Full-time                   4                 4
##  4 Permanent     Switzerl… Local Part-time                   4                 5
##  5 Permanent     Austria   Nati… Part-time                   4                 4
##  6 <NA>          Switzerl… Local Freelancer                  4                 4
##  7 Permanent     Germany   Local Full-time                   4                 4
##  8 Permanent     Denmark   Nati… Full-time                   3                 3
##  9 Permanent     Switzerl… Local Full-time                   5                 5
## 10 Permanent     Denmark   Nati… Full-time                   2                 4
## # ℹ 1,190 more rows
## # ℹ 9 more variables: ethics_1 <dbl>, ethics_2 <dbl>, ethics_3 <dbl>,
## #   ethics_4 <dbl>, work_experience <dbl>, trust_parliament <dbl>,
## #   trust_government <dbl>, trust_parties <dbl>, trust_politicians <dbl>

5.5 Advanced selection of rows

You can make very advanced row selections by using the function
str_detect from the stringr package in combination with filter
from the dplyr package, especially if you combine str_detect with
regular expressions.

Let’s start with partial matching, i.e., when your pattern is part of a string, select it:

data %>% filter(str_detect(employment, "Free"))

## # A tibble: 172 × 15
##    country   reach employment temp_contract autonomy_selection autonomy_emphasis
##    <fct>     <fct> <chr>      <fct>                      <dbl>             <dbl>
##  1 Switzerl… Local Freelancer <NA>                           4                 4
##  2 Denmark   Nati… Freelancer <NA>                           4                 4
##  3 Denmark   Nati… Freelancer <NA>                           5                 5
##  4 UK        Tran… Freelancer <NA>                           4                 4
##  5 Germany   Regi… Freelancer <NA>                           2                 4
##  6 Denmark   Nati… Freelancer <NA>                           4                 4
##  7 Denmark   Nati… Freelancer <NA>                           2                 3
##  8 Denmark   Nati… Freelancer <NA>                           4                 3
##  9 Austria   Nati… Freelancer <NA>                           5                 5
## 10 Denmark   Regi… Freelancer <NA>                           4                 4
## # ℹ 162 more rows
## # ℹ 9 more variables: ethics_1 <dbl>, ethics_2 <dbl>, ethics_3 <dbl>,
## #   ethics_4 <dbl>, work_experience <dbl>, trust_parliament <dbl>,
## #   trust_government <dbl>, trust_parties <dbl>, trust_politicians <dbl>
…
data %>% filter(str_detect(employment, "free"))

## # A tibble: 0 × 15
## # ℹ 15 variables: country <fct>, reach <fct>, employment <chr>,
## #   temp_contract <fct>, autonomy_selection <dbl>, autonomy_emphasis <dbl>,
## #   ethics_1 <dbl>, ethics_2 <dbl>, ethics_3 <dbl>, ethics_4 <dbl>,
## #   work_experience <dbl>, trust_parliament <dbl>, trust_government <dbl>,
## #   trust_parties <dbl>, trust_politicians <dbl>

In regex language, you can ask str_detectto look for lowercase and uppercase matches, when you are unsure of whether the entries are capitalized in your dataset:

data %>% filter(str_detect(employment, "[fF]ree"))

## # A tibble: 172 × 15
##    country   reach employment temp_contract autonomy_selection autonomy_emphasis
##    <fct>     <fct> <chr>      <fct>                      <dbl>             <dbl>
##  1 Switzerl… Local Freelancer <NA>                           4                 4
##  2 Denmark   Nati… Freelancer <NA>                           4                 4
##  3 Denmark   Nati… Freelancer <NA>                           5                 5
##  4 UK        Tran… Freelancer <NA>                           4                 4
##  5 Germany   Regi… Freelancer <NA>                           2                 4
##  6 Denmark   Nati… Freelancer <NA>                           4                 4
##  7 Denmark   Nati… Freelancer <NA>                           2                 3
##  8 Denmark   Nati… Freelancer <NA>                           4                 3
##  9 Austria   Nati… Freelancer <NA>                           5                 5
## 10 Denmark   Regi… Freelancer <NA>                           4                 4
## # ℹ 162 more rows
## # ℹ 9 more variables: ethics_1 <dbl>, ethics_2 <dbl>, ethics_3 <dbl>,
## #   ethics_4 <dbl>, work_experience <dbl>, trust_parliament <dbl>,
## #   trust_government <dbl>, trust_parties <dbl>, trust_politicians <dbl>

You can also ask for matches that end on your pattern:

data %>% filter(str_detect(employment, "time$"))

## # A tibble: 1,028 × 15
##    country   reach employment temp_contract autonomy_selection autonomy_emphasis
##    <fct>     <fct> <chr>      <fct>                      <dbl>             <dbl>
##  1 Germany   Nati… Full-time  Permanent                      5                 4
##  2 Germany   Nati… Full-time  Permanent                      3                 4
##  3 Switzerl… Regi… Full-time  Permanent                      4                 4
##  4 Switzerl… Local Part-time  Permanent                      4                 5
##  5 Austria   Nati… Part-time  Permanent                      4                 4
##  6 Germany   Local Full-time  Permanent                      4                 4
##  7 Denmark   Nati… Full-time  Permanent                      3                 3
##  8 Switzerl… Local Full-time  Permanent                      5                 5
##  9 Denmark   Nati… Full-time  Permanent                      2                 4
## 10 Austria   Local Full-time  Permanent                      5                 5
## # ℹ 1,018 more rows
## # ℹ 9 more variables: ethics_1 <dbl>, ethics_2 <dbl>, ethics_3 <dbl>,
## #   ethics_4 <dbl>, work_experience <dbl>, trust_parliament <dbl>,
## #   trust_government <dbl>, trust_parties <dbl>, trust_politicians <dbl>
…
